[www.brown.edu/about.html]
[www.brown.edu/index.html]
[www.brown.edu/about/facts.html]
[www.brown.edu/about/facts/faculty-and-employees.html]
[www.brown.edu/about/facts/admission.html]
[www.brown.edu/content/research-libraries-and-athletics.html]
[www.brown.edu/about/mission.html]
[www.brown.edu/about/administration.html]
[www.brown.edu/about/visit.html]
[www.brown.edu/about/visit/accommodations.html]
[www.brown.edu/about/visit/driving-directions.html]
[www.brown.edu/academics.html]
[www.brown.edu/academics/centers-and-institutes.html]
[www.brown.edu/admission.html]
[www.brown.edu/campus-life.html]
[www.brown.edu/campus-life/athletics.html]
[www.brown.edu/campus-life/housing-and-dining.html]
[www.brown.edu/campus-life/health.html]
[www.brown.edu/campus-life/clubs.html]
[www.brown.edu/campus-life/events.html]
[www.brown.edu/campus-life/arts.html]
[www.brown.edu/content/life-providence.html]
[www.brown.edu/campus-life/support.html]
[www.brown.edu/a-to-z/academics/depts.html]
[www.brown.edu/gateway/faculty.html]
[www.brown.edu/gateway/staff.html]
[www.brown.edu/gateway/families.html]
[www.brown.edu/gateway/current-students/index.html]
[www.brown.edu/gateway/friends-and-neighbors.html]
[www.brown.edu/contact.html]
[www.brown.edu/sites/default/themes/pawtuxet/favicon.ico]
[cloud.typography.com/index.html]
[maxcdn.bootstrapcdn.com/font-awesome/4.4.0/css/font-awesome.min.css]
[www.brown.edu/sites/default/themes/pawtuxet/img/icons/app-icon.png]
[www.brown.edu/modules/node/node4b43.css]
[www.brown.edu/modules/system/defaults4b43.css]
[www.brown.edu/modules/system/system4b43.css]
[www.brown.edu/modules/system/system-menus4b43.css]
[www.brown.edu/modules/user/user4b43.css]
[www.brown.edu/sites/all/modules/cck/theme/content-module4b43.css]
[www.brown.edu/sites/all/modules/ctools/css/ctools4b43.css]
[www.brown.edu/sites/all/modules/date/date4b43.css]
[www.brown.edu/sites/all/modules/dhtml_menu/dhtml_menu4b43.css]
[www.brown.edu/sites/all/modules/filefield/filefield4b43.css]
[www.brown.edu/sites/all/modules/shib_auth/shib_auth4b43.css]
[www.brown.edu/sites/default/modules/google_cse/google_cse4b43.css]
[www.brown.edu/sites/default/modules/img_assist/img_assist4b43.css]
[www.brown.edu/sites/all/modules/cck/modules/fieldgroup/fieldgroup4b43.css]
[www.brown.edu/sites/all/modules/views/css/views4b43.css]
[www.brown.edu/sites/all/modules/custom_search/custom_search4b43.css]
[www.brown.edu/sites/default/themes/pawtuxet/j/flexslider/flexslider4b43.css]
[www.brown.edu/sites/default/themes/pawtuxet/s/style4b43.css]
[www.brown.edu/sites/default/themes/pawtuxet/s/brown-together4b43.css]
[www.brown.edu/sites/default/themes/pawtuxet/s/print4b43.css]
[www.brown.edu/sites/default/themes/pawtuxet/s/2015-front115f.css]
[www.brown.edu/rss]
[www.brown.edu/rss/feature]
[www.brown.edu/rss/news+item]
[www.brown.edu/sites/default/themes/pawtuxet/img/brown-logo.png]
[www.brown.edu/sites/default/files/imagecache/front_billboard/kessler-home-72.jpg]
[www.brown.edu/sites/default/files/imagecache/front_billboard/matchday01.jpg]
[www.brown.edu/sites/default/files/imagecache/front_billboard/sat-02-home.jpg]
[www.brown.edu/sites/default/files/imagecache/front_billboard/walkout_0.jpg]
[www.brown.edu/sites/default/files/imagecache/home_teaser/vowels-home.jpg]
[www.brown.edu/sites/default/files/imagecache/home_teaser/02_SOLEIL_O_Hondo_WCP_1_.jpg]
[www.brown.edu/sites/default/files/imagecache/home_teaser/wrinkle-home.jpg]
[www.brown.edu/sites/default/files/imagecache/home_teaser/Uche.jpg]
[www.brown.edu/sites/default/files/imagecache/home_teaser/gym.jpg]
[www.brown.edu/index.html]
[www.brown.edu/sites/default/themes/pawtuxet/img/banners/about/index.jpg]
[www.brown.edu/about.html]
[www.brown.edu/sites/default/files/images/rhodeisland-hall.thumbnail.jpg]
[www.brown.edu/sites/default/themes/pawtuxet/img/banners/about/facts.jpg]
[www.brown.edu/about/facts.html]
[www.brown.edu/sites/default/themes/pawtuxet/img/banners/about/facts/faculty-and-employees.jpg]
[www.brown.edu/about/facts/faculty-and-employees.html]
[www.brown.edu/sites/default/themes/pawtuxet/img/banners/about/facts/admission.jpg]
[www.brown.edu/about/facts/admission.html]
[www.brown.edu/sites/default/themes/pawtuxet/img/banners/default.jpg]
[www.brown.edu/content/research-libraries-and-athletics.html]
[www.brown.edu/about/mission.html]
[www.brown.edu/about/administration.html]
[www.brown.edu/sites/default/themes/pawtuxet/img/banners/about/visit.jpg]
[www.brown.edu/about/visit.html]
[www.brown.edu/sites/default/files/images/providencepanorama.jpg]
[www.brown.edu/about/visit/accommodations.html]
[www.brown.edu/about/visit/driving-directions.html]
[www.brown.edu/sites/default/themes/pawtuxet/img/banners/academics/index.jpg]
[www.brown.edu/sites/default/files/images/fieldwork.thumbnail.jpg]
[www.brown.edu/academics.html]
[www.brown.edu/sites/default/themes/pawtuxet/img/banners/academics/centers-and-institutes.jpg]
[www.brown.edu/academics/centers-and-institutes.html]
[www.brown.edu/sites/default/themes/pawtuxet/img/banners/admission/index.jpg]
[www.brown.edu/web/images/toplevel/undergrad.jpg]
[www.brown.edu/web/images/toplevel/gradschool.jpg]
[www.brown.edu/web/images/toplevel/med.jpg]
[www.brown.edu/web/images/toplevel/executive.jpg]
[www.brown.edu/web/images/toplevel/pre-college.jpg]
[www.brown.edu/web/images/toplevel/finaid.jpg]
[www.brown.edu/web/images/toplevel/visit.jpg]
[www.brown.edu/admission.html]
[www.brown.edu/sites/default/themes/pawtuxet/img/banners/campus-life/index.jpg]
[www.brown.edu/sites/default/files/images/abromowski-dorm.thumbnail.jpg]
[www.brown.edu/campus-life.html]
[www.brown.edu/sites/default/themes/pawtuxet/img/banners/campus-life/athletics.jpg]
[www.brown.edu/web/images/toplevel/interior2_fitness-2.jpg]
[www.brown.edu/campus-life/athletics.html]
[www.brown.edu/sites/default/themes/pawtuxet/img/banners/campus-life/housing-and-dining.jpg]
[www.brown.edu/sites/default/files/images/dining.thumbnail.jpg]
[www.brown.edu/campus-life/housing-and-dining.html]
[www.brown.edu/sites/default/themes/pawtuxet/img/banners/campus-life/health.jpg]
[www.brown.edu/sites/default/files/images/pharmacy.thumbnail.jpg]
[www.brown.edu/sites/default/files/images/OMAC5_0.thumbnail.jpg]
[www.brown.edu/campus-life/health.html]
[www.brown.edu/sites/default/themes/pawtuxet/img/banners/campus-life/clubs.jpg]
[www.brown.edu/sites/default/files/images/Patience.thumbnail.jpg]
[www.brown.edu/sites/default/files/images/OMAC2.thumbnail.jpg]
[www.brown.edu/sites/default/files/images/swearer.thumbnail.jpg]
[www.brown.edu/campus-life/clubs.html]
[www.brown.edu/sites/default/themes/pawtuxet/img/banners/campus-life/events.jpg]
[www.brown.edu/sites/default/files/images/french-film.thumbnail.jpg]
[www.brown.edu/campus-life/events.html]
[www.brown.edu/sites/default/files/images/_MG_0256.thumbnail.jpg]
[www.brown.edu/sites/default/themes/pawtuxet/img/banners/campus-life/arts.jpg]
[www.brown.edu/sites/default/files/images/DSC_2245.thumbnail.jpg]
[www.brown.edu/sites/default/files/images/BrownFestDance09-2839.thumbnail.jpg]
[www.brown.edu/campus-life/arts.html]
[www.brown.edu/sites/default/files/images/ThayerStreet003.thumbnail.jpg]
[www.brown.edu/content/life-providence.html]
[www.brown.edu/sites/default/themes/pawtuxet/img/banners/campus-life/support.jpg]
[www.brown.edu/sites/default/files/images/health-cr.thumbnail.jpg]
[www.brown.edu/sites/default/files/images/safewalk.thumbnail.jpg]
[www.brown.edu/campus-life/support.html]
[www.brown.edu/a-to-z/academics/depts.html]
[www.brown.edu/gateway/current-students/index.html]
[www.brown.edu/sites/default/files/css_injector_14b43.css]
[www.brown.edu/gateway/faculty.html]
[www.brown.edu/gateway/staff.html]
[www.brown.edu/sites/default/modules/family_block/theme/family_block4b43.css]
[www.brown.edu/gateway/families.html]
[www.brown.edu/sites/default/modules/family_block/theme/parent-and-families.jpg]
[www.brown.edu/gateway/friends-and-neighbors.html]
[www.brown.edu/contact.html]
[cloud.typography.com/index.html]
[maxcdn.bootstrapcdn.com/index.html]
[www.brown.edu/sites/default/themes/pawtuxet/img/icons/app-icon.png]
[maxcdn.bootstrapcdn.com/font-awesome/4.4.0/css/font-awesome.min.css]
[www.brown.edu/rss/feature]
[www.brown.edu/rss/news+item]
[cloud.typography.com/793622/721424/css/fonts.html]
[www.brown.edu/modules/node/node4b43.css]
[www.brown.edu/sites/default/themes/pawtuxet/img/brown-logo.png]
[www.brown.edu/modules/system/defaults4b43.css]
[www.brown.edu/sites/default/files/imagecache/front_billboard/kessler-home-72.jpg]
[www.brown.edu/sites/default/files/imagecache/front_billboard/matchday01.jpg]
[www.brown.edu/modules/system/system4b43.css]
[www.brown.edu/sites/default/files/imagecache/front_billboard/walkout_0.jpg]
[www.brown.edu/sites/default/files/imagecache/front_billboard/sat-02-home.jpg]
[www.brown.edu/modules/system/system-menus4b43.css]
[www.brown.edu/sites/default/files/imagecache/home_teaser/vowels-home.jpg]
[www.brown.edu/modules/user/user4b43.css]
[www.brown.edu/sites/default/files/imagecache/home_teaser/02_SOLEIL_O_Hondo_WCP_1_.jpg]
[www.brown.edu/sites/all/modules/cck/theme/content-module4b43.css]
[www.brown.edu/sites/default/files/imagecache/home_teaser/Uche.jpg]
[www.brown.edu/sites/default/files/imagecache/home_teaser/wrinkle-home.jpg]
[www.brown.edu/sites/all/modules/ctools/css/ctools4b43.css]
[www.brown.edu/sites/default/themes/pawtuxet/img/banners/about/index.jpg]
[www.brown.edu/sites/default/files/images/rhodeisland-hall.thumbnail.jpg]
[www.brown.edu/sites/all/modules/date/date4b43.css]
[www.brown.edu/sites/default/files/imagecache/home_teaser/gym.jpg]
[www.brown.edu/sites/all/modules/dhtml_menu/dhtml_menu4b43.css]
[www.brown.edu/sites/default/themes/pawtuxet/img/banners/about/facts/admission.jpg]
[www.brown.edu/sites/default/themes/pawtuxet/img/banners/about/facts.jpg]
[www.brown.edu/sites/default/themes/pawtuxet/img/banners/about/facts/faculty-and-employees.jpg]
[www.brown.edu/sites/all/modules/filefield/filefield4b43.css]
[www.brown.edu/sites/all/modules/shib_auth/shib_auth4b43.css]
[www.brown.edu/sites/default/themes/pawtuxet/img/banners/default.jpg]
[www.brown.edu/sites/default/themes/pawtuxet/img/banners/about/visit.jpg]
[www.brown.edu/sites/default/files/images/providencepanorama.jpg]
[www.brown.edu/sites/default/modules/google_cse/google_cse4b43.css]
[www.brown.edu/sites/default/modules/img_assist/img_assist4b43.css]
[www.brown.edu/sites/default/themes/pawtuxet/img/banners/academics/index.jpg]
[www.brown.edu/sites/default/files/images/fieldwork.thumbnail.jpg]
[www.brown.edu/sites/default/themes/pawtuxet/img/banners/academics/centers-and-institutes.jpg]
[www.brown.edu/sites/all/modules/cck/modules/fieldgroup/fieldgroup4b43.css]
[www.brown.edu/sites/all/modules/views/css/views4b43.css]
[www.brown.edu/sites/default/themes/pawtuxet/img/banners/admission/index.jpg]
[www.brown.edu/sites/all/modules/custom_search/custom_search4b43.css]
[www.brown.edu/sites/default/themes/pawtuxet/j/flexslider/flexslider4b43.css]
[www.brown.edu/sites/default/themes/pawtuxet/s/style4b43.css]
[www.brown.edu/sites/default/themes/pawtuxet/s/brown-together4b43.css]
[www.brown.edu/sites/default/themes/pawtuxet/s/print4b43.css]
[www.brown.edu/sites/default/themes/pawtuxet/s/2015-front115f.css]
[www.brown.edu/sites/default/files/css_injector_14b43.css]
[www.brown.edu/sites/default/modules/family_block/theme/family_block4b43.css]
